08_Finite_State_Machines/071_Sequence_Detector_1101/image.vcd
$date
	Mon Jun  8 03:05:52 2026
$end
$version
	Icarus Verilog
$end
$timescale
	1ps
$end
$scope module seq_det_tb $end
$var wire 1 ! y $end
$var reg 1 " clk $end
$var reg 1 # in $end
$var reg 1 $ rst $end
$scope module DUT $end
$var wire 1 " clk $end
$var wire 1 # in $end
$var wire 1 $ rst $end
$var wire 1 ! y $end
$var parameter 3 % S0 $end
$var parameter 3 & S1 $end
$var parameter 3 ' S11 $end
$var parameter 3 ( S110 $end
$var parameter 3 ) S1101 $end
$var reg 3 * nxt_state [2:0] $end
$var reg 3 + state [2:0] $end
$upscope $end
$upscope $end
$enddefinitions $end
$comment Show the parameter values. $end
$dumpall
b100 )
b11 (
b10 '
b1 &
b0 %
$end
#0
$dumpvars
b0 +
b0 *
1$
0#
0"
0!
$end
#5000
1"
#10000
0$
0"
#15000
b1 *
1#
1"
#20000
0"
#25000
b10 *
b1 +
1"
#30000
0"
#35000
b11 *
b10 +
0#
1"
#40000
0"
#45000
b100 *
b11 +
1#
1"
#50000
0"
#55000
1!
b0 *
b100 +
0#
1"
#60000
0"
#65000
0!
b1 *
b0 +
1#
1"
#70000
0"
#75000
b10 *
b1 +
1"
#80000
0"
#85000
b11 *
b10 +
0#
1"
#90000
0"
#95000
b100 *
b11 +
1#
1"
#100000
0"
#105000
1!
b1 *
b100 +
1"
#110000
0"
#115000
0!
b10 *
b1 +
1"
