13_Final_Practice_Projects/117_Digital_Stopwatch_System/design/stopwatch.vcd
$date
	Wed Jul  1 00:40:53 2026
$end
$version
	Icarus Verilog
$end
$timescale
	1s
$end
$scope module digital_stopwatch_tb $end
$scope module DUT $end
$var wire 1 ! clear $end
$var wire 1 " clear_pulse $end
$var wire 1 # clk $end
$var wire 1 $ lap $end
$var wire 1 % lap_pulse $end
$var wire 1 & rst $end
$var wire 1 ' start_stop $end
$var wire 1 ( start_stop_pulse $end
$var wire 1 ) tick_rst $end
$var wire 1 * tick_en $end
$var parameter 2 + S_LAP_HELD $end
$var parameter 2 , S_RUNNING $end
$var parameter 2 - S_STOPPED $end
$var parameter 32 . TICK_DIV $end
$var reg 1 / clear_d $end
$var reg 16 0 lap_c [15:0] $end
$var reg 1 1 lap_d $end
$var reg 2 2 nxt_state [1:0] $end
$var reg 1 3 start_stop_d $end
$var reg 2 4 state [1:0] $end
$var reg 16 5 time_c [15:0] $end
$var reg 16 6 time_count [15:0] $end
$scope module tdr $end
$var wire 1 # clk $end
$var wire 1 ) rst $end
$var parameter 32 7 TICK_DIV $end
$var reg 1 8 count $end
$var reg 1 * tick_en $end
$upscope $end
$upscope $end
$upscope $end
$enddefinitions $end
$comment Show the parameter values. $end
$dumpall
b10 7
b10 .
b0 -
b1 ,
b10 +
$end
#0
$dumpvars
x8
bx 6
bx 5
bx 4
x3
b0 2
x1
bx 0
x/
x*
1)
0(
0'
1&
0%
0$
0#
0"
0!
$end
#20
b0 6
0*
08
0/
01
03
b0 4
b0 0
b0 5
1#
#40
0#
#60
1#
#80
0#
#100
1#
#120
0#
#140
1#
#160
0#
#180
1#
#200
0#
#220
1#
#240
0#
#260
1#
#280
0#
#300
1#
#320
0#
#340
1#
#360
0#
#380
0)
1#
#400
0#
#420
18
1#
#440
0#
#460
1*
08
1#
#480
0#
#500
18
1#
#520
0#
#540
0*
08
1#
#560
0#
#580
18
1#
#600
0#
#620
1*
08
1#
#640
0#
#660
18
1#
#680
0#
#700
0*
08
1#
#720
0#
#740
18
1#
#760
0#
#780
1*
08
1#
#800
0#
#820
18
1#
#840
0#
#860
0*
08
1#
#880
0#
#900
18
1#
#920
0#
#940
1*
08
1#
#960
0#
#980
18
1#
#1000
0#
#1020
0*
08
1#
#1040
0#
#1060
18
1#
#1080
0#
#1100
1*
08
1#
#1120
0#
#1140
18
1#
#1160
0#
#1180
0*
08
0&
1#
#1200
0#
#1220
18
1#
#1240
0#
#1260
1*
08
1#
#1280
0#
#1300
18
1#
#1320
0#
#1340
0*
08
1#
#1360
0#
#1380
18
1#
#1400
0#
#1420
1*
08
1#
#1440
0#
#1460
18
1#
#1480
0#
#1500
0*
08
1#
#1520
0#
#1540
18
1#
#1560
0#
#1580
1*
08
1#
#1600
0#
#1620
18
1#
#1640
0#
#1660
0*
08
1#
#1680
0#
#1700
18
1#
#1720
0#
#1740
1*
08
1#
#1760
0#
#1780
18
1#
#1800
0#
#1820
0*
08
1#
#1840
0#
#1860
18
1#
#1880
0#
#1900
1*
08
1#
#1920
0#
#1940
18
1#
#1960
0#
#1980
0*
08
1#
#1981
b1 2
1(
1'
#2000
0#
#2020
0(
b1 2
18
13
b1 4
1#
#2040
0#
#2060
1*
08
1#
#2061
0'
#2080
0#
#2100
b1 6
18
03
b1 5
1#
#2120
0#
#2140
b10 6
b10 5
0*
08
1#
#2160
0#
#2180
18
1#
#2200
0#
#2220
1*
08
1#
#2240
0#
#2260
b11 6
18
b11 5
1#
#2280
0#
#2300
b100 6
b100 5
0*
08
1#
#2320
0#
#2340
18
1#
#2360
0#
#2380
1*
08
1#
#2400
0#
#2420
b101 6
18
b101 5
1#
#2440
0#
#2460
b110 6
b110 5
0*
08
1#
#2461
b10 2
1%
1$
#2480
0#
#2500
0%
b10 2
18
11
b10 4
b110 0
1#
#2520
0#
#2540
1*
08
1#
#2541
0$
#2560
0#
#2580
b110 6
18
01
b111 5
1#
#2600
0#
#2620
b110 6
b1000 5
0*
08
1#
#2640
0#
#2660
18
1#
#2680
0#
#2700
1*
08
1#
#2720
0#
#2740
b110 6
18
b1001 5
1#
#2760
0#
#2780
b110 6
b1010 5
0*
08
1#
#2800
0#
#2820
18
1#
#2840
0#
#2860
1*
08
1#
#2880
0#
#2900
b110 6
18
b1011 5
1#
#2920
0#
#2940
b110 6
b1100 5
0*
08
1#
#2960
0#
#2980
18
1#
#3000
0#
#3020
1*
08
1#
#3040
0#
#3060
b110 6
18
b1101 5
1#
#3080
0#
#3100
b110 6
b1110 5
0*
08
1#
#3120
0#
#3140
18
1#
#3160
0#
#3180
1*
08
1#
#3200
0#
#3220
b110 6
18
b1111 5
1#
#3240
0#
#3260
b110 6
b10000 5
0*
08
1#
#3280
0#
#3300
18
1#
#3320
0#
#3340
1*
08
1#
#3360
0#
#3380
b110 6
18
b10001 5
1#
#3400
0#
#3420
b110 6
b10010 5
0*
08
1#
#3421
b1 2
1%
1$
#3440
0#
#3460
0%
b10010 6
b1 2
18
11
b1 4
1#
#3480
0#
#3500
1*
08
1#
#3501
0$
#3520
0#
#3540
b10011 6
18
01
b10011 5
1#
#3560
0#
#3580
b10100 6
b10100 5
0*
08
1#
#3600
0#
#3620
18
1#
#3640
0#
#3660
1*
08
1#
#3680
0#
#3700
b10101 6
18
b10101 5
1#
#3720
0#
#3740
b10110 6
b10110 5
0*
08
1#
#3760
0#
#3780
18
1#
#3800
0#
#3820
1*
08
1#
#3840
0#
#3860
b10111 6
18
b10111 5
1#
#3880
0#
#3900
b11000 6
b11000 5
0*
08
1#
#3920
0#
#3940
18
1#
#3960
0#
#3980
1*
08
1#
#4000
0#
#4020
b11001 6
18
b11001 5
1#
#4040
0#
#4060
b11010 6
b11010 5
0*
08
1#
#4080
0#
#4100
18
1#
#4120
0#
#4140
1*
08
1#
#4160
0#
#4180
b11011 6
18
b11011 5
1#
#4200
0#
#4220
b11100 6
b11100 5
0*
08
1#
#4221
b10 2
1%
1$
#4240
0#
#4260
0%
b10 2
18
11
b10 4
b11100 0
1#
#4280
0#
#4300
1*
08
1#
#4301
0$
#4320
0#
#4340
b11100 6
18
01
b11101 5
1#
#4360
0#
#4380
b11100 6
b11110 5
0*
08
1#
#4400
0#
#4420
18
1#
#4440
0#
#4460
1*
08
1#
#4480
0#
#4500
b11100 6
18
b11111 5
1#
#4520
0#
#4540
b11100 6
b100000 5
0*
08
1#
#4560
0#
#4580
18
1#
#4600
0#
#4620
1*
08
1#
#4640
0#
#4660
b11100 6
18
b100001 5
1#
#4680
0#
#4700
b11100 6
b100010 5
0*
08
1#
#4720
0#
#4740
18
1#
#4760
0#
#4780
1*
08
1#
#4800
0#
#4820
b11100 6
18
b100011 5
1#
#4840
0#
#4860
b11100 6
b100100 5
0*
08
1#
#4880
0#
#4900
18
1#
#4920
0#
#4940
1*
08
1#
#4960
0#
#4980
b11100 6
18
b100101 5
1#
#5000
0#
#5020
b11100 6
b100110 5
0*
08
1#
#5040
0#
#5060
18
1#
#5080
0#
#5100
1*
08
1#
#5120
0#
#5140
b11100 6
18
b100111 5
1#
#5160
0#
#5180
b11100 6
b101000 5
0*
08
1#
#5181
b0 2
1"
1!
#5200
0#
#5220
0"
b0 6
18
1/
b0 4
b0 0
b0 5
1#
#5240
0#
#5260
1*
08
1#
#5261
0!
#5280
0#
#5300
18
0/
1#
#5320
0#
#5340
0*
08
1#
#5360
0#
#5380
18
1#
#5400
0#
#5420
1*
08
1#
#5440
0#
#5460
18
1#
#5480
0#
#5500
0*
08
1#
#5520
0#
#5540
18
1#
#5560
0#
#5580
1*
08
1#
#5600
0#
#5620
18
1#
#5640
0#
#5660
0*
08
1#
#5680
0#
#5700
18
1#
#5720
0#
#5740
1*
08
1#
#5760
0#
#5780
18
1#
#5800
0#
#5820
0*
08
1#
#5840
0#
#5860
18
1#
#5880
0#
#5900
1*
08
1#
#5920
0#
#5940
18
1#
#5960
0#
#5980
0*
08
1#
#6000
0#
#6020
18
1#
#6040
0#
#6060
1*
08
1#
#6080
0#
#6100
18
1#
#6120
0#
#6140
0*
08
1#
#6141
b1 2
1(
1'
#6160
0#
#6180
0(
b1 2
18
13
b1 4
1#
#6200
0#
#6220
1*
08
1#
#6221
0'
#6240
0#
#6260
b1 6
18
03
b1 5
1#
#6280
0#
#6300
b10 6
b10 5
0*
08
1#
#6320
0#
#6340
18
1#
#6360
0#
#6380
1*
08
1#
#6400
0#
#6420
b11 6
18
b11 5
1#
#6440
0#
#6460
b100 6
b100 5
0*
08
1#
#6480
0#
#6500
18
1#
#6520
0#
#6540
1*
08
1#
#6560
0#
#6580
b101 6
18
b101 5
1#
#6600
0#
#6620
b110 6
b110 5
0*
08
1#
#6621
b10 2
1%
1$
#6640
0#
#6660
0%
b10 2
18
11
b10 4
b110 0
1#
#6680
0#
#6700
1*
08
1#
#6701
0$
#6720
0#
#6740
b110 6
18
01
b111 5
1#
#6760
0#
#6780
b110 6
b1000 5
0*
08
1#
#6800
0#
#6820
18
1#
#6840
0#
#6860
1*
08
1#
#6880
0#
#6900
b110 6
18
b1001 5
1#
#6920
0#
#6940
b110 6
b1010 5
0*
08
1#
#6960
0#
#6980
18
1#
#7000
0#
#7020
1*
08
1#
#7040
0#
#7060
b110 6
18
b1011 5
1#
#7080
0#
#7100
b110 6
b1100 5
0*
08
1#
#7120
0#
#7140
18
1#
#7160
0#
#7180
1*
08
1#
#7200
0#
#7220
b110 6
18
b1101 5
1#
#7240
0#
#7260
b110 6
b1110 5
0*
08
1#
#7280
0#
#7300
18
1#
#7320
0#
#7340
1*
08
1#
#7360
0#
#7380
b110 6
18
b1111 5
1#
#7400
0#
#7420
b110 6
b10000 5
0*
08
1#
#7440
0#
#7460
18
1#
#7480
0#
#7500
1*
08
1#
#7520
0#
#7540
b110 6
18
b10001 5
1#
#7560
0#
#7580
b110 6
b10010 5
0*
08
1#
#7581
b1 2
1%
1$
#7600
0#
#7620
0%
b10010 6
b1 2
18
11
b1 4
1#
#7640
0#
#7660
1*
08
1#
#7661
0$
#7680
0#
#7700
b10011 6
18
01
b10011 5
1#
#7720
0#
#7740
b10100 6
b10100 5
0*
08
1#
#7760
0#
#7780
18
1#
#7800
0#
#7820
1*
08
1#
#7840
0#
#7860
b10101 6
18
b10101 5
1#
#7880
0#
#7900
b10110 6
b10110 5
0*
08
1#
#7920
0#
#7940
18
1#
#7960
0#
#7980
1*
08
1#
#8000
0#
#8020
b10111 6
18
b10111 5
1#
#8040
0#
#8060
b11000 6
b11000 5
0*
08
1#
#8080
0#
#8100
18
1#
#8120
0#
#8140
1*
08
1#
#8160
0#
#8180
b11001 6
18
b11001 5
1#
#8200
0#
#8220
b11010 6
b11010 5
0*
08
1#
#8240
0#
#8260
18
1#
#8280
0#
#8300
1*
08
1#
#8320
0#
#8340
b11011 6
18
b11011 5
1#
#8360
0#
#8380
b11100 6
b11100 5
0*
08
1#
#8381
b10 2
1%
1$
#8400
0#
#8420
0%
b10 2
18
11
b10 4
b11100 0
1#
#8440
0#
#8460
1*
08
1#
#8461
0$
#8480
0#
#8500
b11100 6
18
01
b11101 5
1#
#8520
0#
#8540
b11100 6
b11110 5
0*
08
1#
#8560
0#
#8580
18
1#
#8600
0#
#8620
1*
08
1#
#8640
0#
#8660
b11100 6
18
b11111 5
1#
#8680
0#
#8700
b11100 6
b100000 5
0*
08
1#
#8720
0#
#8740
18
1#
#8760
0#
#8780
1*
08
1#
#8800
0#
#8820
b11100 6
18
b100001 5
1#
#8840
0#
#8860
b11100 6
b100010 5
0*
08
1#
#8880
0#
#8900
18
1#
#8920
0#
#8940
1*
08
1#
#8960
0#
#8980
b11100 6
18
b100011 5
1#
#9000
0#
#9020
b11100 6
b100100 5
0*
08
1#
#9040
0#
#9060
18
1#
#9080
0#
#9100
1*
08
1#
#9120
0#
#9140
b11100 6
18
b100101 5
1#
#9160
0#
#9180
b11100 6
b100110 5
0*
08
1#
#9200
0#
#9220
18
1#
#9240
0#
#9260
1*
08
1#
#9280
0#
#9300
b11100 6
18
b100111 5
1#
#9320
0#
#9340
b11100 6
b101000 5
0*
08
1#
#9341
b0 2
1"
1!
#9360
0#
#9380
0"
b0 6
18
1/
b0 4
b0 0
b0 5
1#
#9400
0#
#9420
1*
08
1#
#9421
0!
#9440
0#
#9460
18
0/
1#
#9480
0#
#9500
0*
08
1#
#9520
0#
#9540
18
1#
#9560
0#
#9580
1*
08
1#
#9600
0#
#9620
18
1#
#9640
0#
#9660
0*
08
1#
#9680
0#
#9700
18
1#
#9720
0#
#9740
1*
08
1#
#9760
0#
#9780
18
1#
#9800
0#
#9820
0*
08
1#
#9840
0#
#9860
18
1#
#9880
0#
#9900
1*
08
1#
#9920
0#
#9940
18
1#
#9960
0#
#9980
0*
08
1#
#10000
0#
#10020
18
1#
#10040
0#
#10060
1*
08
1#
#10080
0#
#10100
18
1#
#10120
0#
#10140
0*
08
1#
#10160
0#
#10180
18
1#
#10200
0#
#10220
1*
08
1#
